BUILD: Insider Activity Dashboard — Backend Service

Build a complete backend service that fetches SEC Form 4 insider trading filings, scores each transaction by how unusual/significant it is, stores results in our Neon PostgreSQL database (30-day retention), and exposes REST API endpoints for the frontend.

=== STEP 1: Install the edgartools Python library ===

Run this in the shell:
pip install edgartools --break-system-packages

edgartools is a FREE, open-source Python library that talks directly to SEC EDGAR. No API key needed. No rate limits. It parses Form 4 filings into structured Python objects.

You MUST set a User-Agent identity for SEC compliance. Add this at the top of the service file:
from edgar import set_identity
set_identity("CaelynAI Trading Dashboard admin@caelynai.com")

=== STEP 2: Create the database table ===

Create a new file: services/insider_activity_service.py

Add a PostgreSQL table called "insider_transactions" with these columns:
- id: SERIAL PRIMARY KEY
- accession_number: VARCHAR(30) UNIQUE (the SEC filing ID — use this to avoid duplicates)
- ticker: VARCHAR(10)
- company_name: VARCHAR(255)
- insider_name: VARCHAR(255)
- insider_title: VARCHAR(100) (CEO, CFO, Director, 10% Owner, etc.)
- transaction_type: VARCHAR(20) (Buy, Sale, Exercise, Gift)
- transaction_code: VARCHAR(5) (P, S, M, A, D, G, V — raw SEC code)
- transaction_date: DATE
- filing_date: TIMESTAMP
- shares: BIGINT
- price_per_share: DECIMAL(12,4)
- total_value: DECIMAL(16,2)
- shares_owned_after: BIGINT (post-transaction holdings)
- ownership_type: VARCHAR(10) (Direct or Indirect)
- conviction_score: INTEGER (0-100, our calculated score)
- score_breakdown: JSONB (stores individual scoring components)
- price_context: JSONB (stores price change since transaction, 52w high/low, etc.)
- cluster_id: INTEGER (groups related transactions together)
- context_tags: TEXT[] (array of tags like "open-market buy", "large trade", "C-suite", etc.)
- created_at: TIMESTAMP DEFAULT NOW()
- expires_at: TIMESTAMP (set to 30 days from created_at for auto-cleanup)

Add an index on (ticker, transaction_date) and (conviction_score DESC).

Run a cleanup query on startup that deletes rows where expires_at < NOW().

=== STEP 3: Fetch Form 4 filings from SEC EDGAR using edgartools ===

Create a function called fetch_recent_form4_filings() that:

1. Uses edgartools to get the most recent Form 4 filings:
   from edgar import get_filings
   filings = get_filings(form="4")  # Gets most recent Form 4 filings
   
2. For each filing, parse it into structured data:
   form4 = filing.obj()
   
3. Extract these fields from each parsed filing:
   - filing.company (company name)
   - filing.cik (company CIK number)  
   - form4.reporting_owner_name (insider name)
   - form4.reporting_owner_relationship (dict with isDirector, isOfficer, officerTitle, isTenPercentOwner)
   - form4.transactions (list of transactions with: transaction_date, transaction_code, shares, price_per_share, acquired_disposed_code, shares_owned_following)
   - filing.accession_number (unique filing ID)
   - filing.filing_date

4. For the ticker symbol: The filing object may have it in the issuer data. If not available directly, use the company CIK to look it up from SEC's company tickers JSON:
   https://www.sec.gov/files/company_tickers.json
   Cache this mapping in memory on startup.

5. Filter to only keep transaction codes P (Purchase) and S (Sale) as primary. Also track M (Exercise/Conversion), A (Grant/Award), D (Disposition), G (Gift) but flag them differently.

6. Run this fetch every 2 hours via a background task (use asyncio or APScheduler). Also allow manual trigger via API endpoint.

7. IMPORTANT: Before inserting, check if accession_number already exists in the database. Skip duplicates.

8. Rate limit SEC requests to max 10 requests per second (SEC's guideline). Add a 0.15 second delay between each filing parse.

=== STEP 4: Build the Conviction Scoring Engine ===

Create a function called calculate_conviction_score() that takes a parsed transaction and returns a score 0-100 plus a breakdown dict.

Score these 8 factors (each weighted):

FACTOR 1 — Transaction Size (weight: 20 points max)
- Calculate total_value = shares * price_per_share
- $0-$50K = 2 pts, $50K-$250K = 6 pts, $250K-$1M = 10 pts, $1M-$5M = 15 pts, $5M+ = 20 pts

FACTOR 2 — Insider Title/Role (weight: 20 points max)
- CEO / Chairman = 20 pts
- President / COO = 18 pts
- CFO / CTO / CMO (C-suite) = 16 pts
- SVP / EVP = 12 pts
- VP = 10 pts
- Director = 8 pts
- 10% Owner = 15 pts (these are significant — activist investors, PE firms)
- Other Officer = 6 pts
- Parse the officerTitle string to determine role. Check isDirector, isOfficer, isTenPercentOwner booleans.

FACTOR 3 — Transaction Type (weight: 10 points max)
- Open market purchase (code P, acquired) = 10 pts (strongest signal — they chose to buy with their own money)
- Open market sale (code S) = 7 pts (common but still notable)
- Exercise + Hold (code M, but they keep shares) = 5 pts
- Exercise + Sell (code M immediately followed by S) = 3 pts (weakest — often just cashing out options)
- Gift (code G) = 1 pt
- Grant/Award (code A) = 0 pts (not a voluntary decision)

FACTOR 4 — Price Context (weight: 15 points max)
Use Tradier batch quotes (PRIMARY), Finnhub (FALLBACK 1), or yfinance (FALLBACK 2) to get the stock's current price and 52-week high/low. See STEP 6 below for the full fallback chain and API details.
- Buying after 30%+ drop from 52w high = 15 pts
- Buying after 20-30% drop = 12 pts
- Buying after 10-20% drop = 8 pts
- Buying near 52w low (within 10%) = 10 pts
- Buying near all-time/52w high (within 5%) = 3 pts (less contrarian signal)
- Selling near 52w high = 5 pts (expected)
- Selling after big drop = 12 pts (unusual — bearish signal)
Calculate: pct_from_52w_high = (current_price - high_52w) / high_52w * 100

FACTOR 5 — Clustering (weight: 10 points max)
Check if multiple insiders at the SAME company filed Form 4s within a 14-day window.
- 1 insider = 0 pts (baseline)
- 2 insiders = 4 pts
- 3-4 insiders = 7 pts  
- 5+ insiders = 10 pts
- Query the database: SELECT COUNT(DISTINCT insider_name) FROM insider_transactions WHERE ticker = {ticker} AND transaction_date BETWEEN {date - 14 days} AND {date + 14 days}
- Assign the same cluster_id to all transactions in a cluster.

FACTOR 6 — Position Size Impact (weight: 10 points max)
- Calculate: trade_pct = shares_traded / shares_owned_after * 100
- For BUYS: >50% increase in position = 10 pts, 20-50% = 7 pts, 10-20% = 4 pts, <10% = 2 pts
- For SELLS: >50% of holdings sold = 10 pts (major liquidation), 20-50% = 7 pts, 10-20% = 4 pts, <10% = 2 pts

FACTOR 7 — Insider Track Record (weight: 10 points max)
- Look up the same insider_name in our database history (last 30 days of data we have)
- If this insider has filed before: check if their previous buys preceded price increases
- For now (MVP): Simply count how many filings this insider has in our database
- 1 filing (first time we see them) = 5 pts (neutral)
- 2-3 filings = 7 pts (active insider)
- 4+ filings in 30 days = 10 pts (very active — either bullish cluster or regular seller)
- NOTE: Track record accuracy requires months of data. For MVP, just use frequency. Add accuracy tracking later.

FACTOR 8 — Event Proximity (weight: 5 points max)
- Check if transaction date is within 14 days of earnings (use Finnhub earnings calendar endpoint)
- Pre-earnings buy = 5 pts (insider knows something)
- Pre-earnings sell = 4 pts
- No nearby event = 1 pt
- Finnhub endpoint: GET /stock/earnings?symbol={ticker}&from={date-14d}&to={date+14d}

TOTAL SCORE = sum of all 8 factors (max 100)

Store the breakdown as JSONB:
{
  "size": {"score": 15, "max": 20, "detail": "$2.3M total value"},
  "role": {"score": 20, "max": 20, "detail": "CEO"},
  "type": {"score": 10, "max": 10, "detail": "Open market purchase"},
  "context": {"score": 12, "max": 15, "detail": "Buying 25% below 52w high"},
  "cluster": {"score": 7, "max": 10, "detail": "3 insiders buying in 14-day window"},
  "position_impact": {"score": 7, "max": 10, "detail": "35% increase in holdings"},
  "track_record": {"score": 5, "max": 10, "detail": "First filing in our database"},
  "event_proximity": {"score": 4, "max": 5, "detail": "12 days before earnings"}
}

=== STEP 5: Generate Context Tags ===

For each transaction, generate an array of descriptive tags:

Based on transaction_code:
- P → "open-market buy"
- S → "open-market sell"  
- M → "option exercise"
- A → "grant/award"
- G → "gift"

Based on insider role:
- CEO/Chairman/President → "C-suite"
- Director → "board member"
- 10% Owner → "major shareholder"

Based on value:
- > $1M → "large trade"
- > $10M → "mega trade"

Based on clustering:
- 2+ insiders → "{N} insiders"

Based on position impact:
- > 50% position change → "major stake change"

Store as TEXT[] array in context_tags column.

=== STEP 6: Price Context Enrichment ===

After scoring, enrich each transaction with price context data. Store in price_context JSONB column:
{
  "price_at_filing": 28.26,
  "current_price": 27.42,
  "change_since_filing_pct": -2.97,
  "high_52w": 44.50,
  "low_52w": 22.10,
  "pct_from_52w_high": -38.4,
  "return_30d": null,  // fill in later via scheduled job
  "return_90d": null,
  "vs_52w_high": "-38.4%"
}

Use a 3-tier fallback chain for stock price data:

PRIMARY — Tradier API (120 requests/min, supports batch quotes, returns 52-week high/low natively):
The Tradier quotes endpoint accepts MULTIPLE symbols in one call (comma-separated), which is critical for efficiency.
Use the sandbox endpoint for delayed data (free, no brokerage account needed):
GET https://sandbox.tradier.com/v1/markets/quotes?symbols={ticker1},{ticker2},{ticker3}
Headers: Authorization: Bearer {TRADIER_API_KEY}, Accept: application/json

The Tradier quote response includes these fields we need:
- last: current price
- week_52_high: 52-week high
- week_52_low: 52-week low  
- change_percentage: daily change %
- prevclose: previous close

BATCH STRATEGY: Collect all unique tickers from the current batch of insider filings, then make ONE Tradier call with up to 50 symbols comma-separated. This means enriching 50 transactions costs only 1 API call instead of 50.

Example: GET https://sandbox.tradier.com/v1/markets/quotes?symbols=AAPL,TSLA,GME,DASH,WBD

If you have a Tradier production token (from a brokerage account), use https://api.tradier.com/v1/markets/quotes instead for real-time data. The sandbox gives 15-minute delayed data which is fine for this use case.

FALLBACK 1 — Finnhub (60 requests/min, one symbol at a time):
GET https://finnhub.io/api/v1/quote?symbol={ticker}&token={FINNHUB_API_KEY}
Returns: c (current price), h (high), l (low), o (open), pc (previous close)
NOTE: Finnhub quote does NOT include 52-week high/low. If Finnhub is needed, also call:
GET https://finnhub.io/api/v1/stock/metric?symbol={ticker}&metric=all&token={FINNHUB_API_KEY}
This returns 52WeekHigh and 52WeekLow in the "metric" object.

FALLBACK 2 — yfinance (completely free, no API key, no rate limit, but slower):
Install: pip install yfinance --break-system-packages
import yfinance as yf
ticker_data = yf.Ticker("AAPL")
info = ticker_data.info
current_price = info.get("currentPrice") or info.get("regularMarketPrice")
high_52w = info.get("fiftyTwoWeekHigh")
low_52w = info.get("fiftyTwoWeekLow")

yfinance is slower (~1-2 seconds per ticker) but has NO rate limits and NO API key. Use it as the last resort when Tradier and Finnhub both fail. It also returns sector, industry, and company name which can be useful for enrichment.

IMPORTANT: Always try Tradier first (batch call = fast), then Finnhub for any tickers that failed, then yfinance for any remaining failures. Handle all API errors gracefully — if ALL three fail for a ticker, just save the transaction with null price context. The scoring engine should still calculate the other 7 factors without price data.

=== STEP 7: REST API Endpoints ===

Create these FastAPI endpoints:

GET /api/insider-activity
Query params:
- type: "all" | "buys" | "sales" | "exercises" | "gifts" (default: "all")
- sector: string (optional, filter by sector — requires company profile lookup)
- timeframe: "1w" | "1m" | "3m" | "6m" (default: "6m")
- min_score: integer (optional, minimum conviction score)
- sort: "score" | "date" | "value" | "ticker" (default: "score")
- order: "desc" | "asc" (default: "desc")
- search: string (optional — search ticker, company name, or insider name)
- limit: integer (default: 50, max: 200)
- offset: integer (default: 0)

Response format:
{
  "summary": {
    "total_transactions": 32291,
    "total_buys": 2305,
    "total_sales": 29986,
    "avg_buy_score": 64.2,
    "top_buy_ticker": "TPL",
    "top_sell_ticker": "CRWV",
    "last_refresh": "2026-03-22T10:51:00Z"
  },
  "transactions": [
    {
      "id": 1,
      "conviction_score": 85,
      "ticker": "TSLX",
      "company_name": "Sixth Street Specialties...",
      "insider_name": "Waxman...",
      "insider_title": "President & ...",
      "transaction_date": "2026-03-06",
      "transaction_type": "Buy",
      "shares": 200000,
      "price": 18.42,
      "total_value": 3700000,
      "pct_change_since": 200.0,
      "cluster_size": 7,
      "context_tags": ["open-market buy", "7 insiders", "major stake change"],
      "score_breakdown": { ... }
    }
  ],
  "pagination": {
    "total": 32291,
    "limit": 50,
    "offset": 0,
    "has_more": true
  }
}

GET /api/insider-activity/{ticker}
Returns all insider transactions for a specific ticker, plus a detailed company insider profile:
{
  "ticker": "GME",
  "company_name": "GameStop Corp.",
  "transactions": [ ... ],
  "insider_summary": {
    "total_insiders_active": 4,
    "net_direction": "buying",  // or "selling" or "mixed"
    "total_buy_value_30d": 11500000,
    "total_sell_value_30d": 0
  }
}

GET /api/insider-activity/detail/{accession_number}
Returns full detail for a single transaction including the complete score_breakdown and price_context.

POST /api/insider-activity/refresh
Manually triggers a new fetch from SEC EDGAR. Returns {"status": "refresh_started", "estimated_time_seconds": 120}.

GET /api/insider-activity/stats
Returns aggregate statistics:
{
  "total_transactions": 32291,
  "buys": 2305,
  "sales": 29986,
  "avg_buy_score": 64.2,
  "top_buy": {"ticker": "TPL", "score": 92},
  "top_sell": {"ticker": "CRWV", "score": 88},
  "last_refresh": "2026-03-22T10:51:00Z"
}

=== STEP 8: Register Routes ===

In main.py (or wherever your FastAPI app is defined), import and include the new router:
from services.insider_activity_service import router as insider_activity_router
app.include_router(insider_activity_router, prefix="/api")

=== STEP 9: Background Scheduler ===

Set up a background task that runs every 2 hours to:
1. Fetch new Form 4 filings from SEC EDGAR
2. Score each new transaction
3. Enrich with price context
4. Insert into database (skip duplicates via accession_number UNIQUE constraint)
5. Update cluster_ids for any new clusters detected
6. Clean up expired rows (expires_at < NOW())

Use APScheduler or asyncio with the FastAPI lifespan:
from apscheduler.schedulers.asyncio import AsyncIOScheduler

=== STEP 10: Initial Data Load ===

On first startup, if the insider_transactions table is empty, do a bulk historical load:
- Fetch the last 6 months of Form 4 filings using edgartools
- Process in batches of 50 to avoid overwhelming SEC servers
- Add 0.15 second delay between each filing parse
- This initial load may take 15-30 minutes — log progress

edgartools bulk fetch example:
from edgar import get_filings
# Get filings from a date range
filings = get_filings(form="4", year=2026, quarter=1)
# Iterate through them
for filing in filings:
    form4 = filing.obj()
    # parse and score...

=== ENVIRONMENT VARIABLES NEEDED ===
No new API keys needed! edgartools and yfinance are completely free.
You already have: TRADIER_API_KEY, FINNHUB_API_KEY, DATABASE_URL (Neon PostgreSQL)
Also install yfinance as a zero-config fallback: pip install yfinance --break-system-packages

=== IMPORTANT NOTES ===
- edgartools requires Python 3.9+. You're on 3.11, so you're good.
- SEC EDGAR rate limit: max 10 requests/second. Add 0.15s delay between requests.
- set_identity() is REQUIRED by the SEC. Use a real email address.
- The scoring weights can be adjusted later — make them configurable constants at the top of the file.
- Store all scores in the database so the frontend never needs to calculate anything.
- All monetary values should be in USD.